…
<img src="case_study_files/figure-gfm/unnamed-chunk-8-1.png" width="90%" />

``` r
nyc_airbnb |> 
  filter(price < 1000, 
         room_type == "Entire home/apt", 
         borough == "Manhattan") |> 
  group_by(neighbourhood) |> 
  summarize(n_apt = n(),
            mean_price = mean(price)) |> 
  arrange(desc(mean_price))
```

    ## # A tibble: 32 × 3
    ##    neighbourhood      n_apt mean_price
    ##    <chr>              <int>      <dbl>
    ##  1 Tribeca              100       358.
    ##  2 NoHo                  61       312.
    ##  3 Flatiron District     75       307.
    ##  4 SoHo                 234       296.
    ##  5 Theater District      93       282.
    ##  6 Midtown              655       276.
    ##  7 Battery Park City     44       271.
    ##  8 Greenwich Village    282       256.
    ##  9 Chelsea              765       255.
    ## 10 Financial District   228       250.
    ## # ℹ 22 more rows
…
